[
    [
        "000010e3544c47b4fc12c2475fd1897a8bff4ff7686d47200e61e9cf8ea1099f",
        301155557683947879040394402439414366087702127296512462154611606733979648
    ],
    [
        "00000c460df7fbe35d67b47dc6f9882df24f440f234fa1270e1c04e3a5480cd1",
        141900835850672341515188990123780366949016499500466488428284986150354944
    ],
    [
        "0000009790b52063d114d31080964480b81c73ba0e538f2c886f97524d481033",
        8515235967444528444833557964418540146008900728802199488689822710628352
    ],
    [
        "0000001fe4147ac2812c25a6521c4093f879e12f6ccbbb545fe28676ad6e2b5e",
        8979347236827859966611282712420475741238271414232419421987571188629504
    ],
    [
        "0000003d40f5c6fe7971e05ba75cfd6575847d91184e1b7f04c7dacfb9e9e8f8",
        9532552704962790868335446111842796522209427350371503903406466753626112
    ],
    [
        "00000097725986fa6c9b1d02b7d56250f93878eb6f496c6de23cf7bdc16ed827",
        7246222852838414345123645730830311436566214829225582698075375431319552
    ],
    [
        "00000023790a6a2f05f4d853815918ecdbb38ffeaff85f67abdf493435d0c904",
        9418288868502406320768205051806014103143426171861908117695539342999552
    ],
    [
        "0000006023f9e0fb6905c2df505a6e03800e9f97bb14540e25a8deba647a83cf",
        7659678909929169860099671907516401553850196973768138508859800329125888
    ],
    [
        "00000106c40436a3b26bd56bfd3d07013e0deb602bdfc152582b1ece2351aaf9",
        7830390134723901059736997030391631324639125923412428618203038423711744
    ],
    [
        "0000004ea27015010063ae426331fb66b221a6fe6975ca05e41f30e5b6068b52",
        8325041968691114165657118006421831345240976186508807793764537085198336
    ],
    [
        "000000abebb8f20e252559ea505106ca7e7c0a52f55a87a4cd87cf6fb488b7af",
        7389447569507652119032814248480103224519912158970329489381238360768512
    ],
    [
        "000000a2610c3ed8001dda1469ba23404b290a77e4b77871a7795da2329c27eb",
        6132966617610096324539954260186231296523174775746378043006054087786496
    ],
    [
        "00000066782971f7e8eb78df372731be29f143eeb5cb23093b431a5280506312",
        6867203915123277030197838749196781550650511380879006446671110223167488
    ],
    [
        "0000003fb735fec7a4a216022ddb04655ecf3d191293aa0c35d1622b902f1665",
        9434506961419364127519684428069299349720536016553592680828703233540096
    ],
    [
        "00000015ca25423ec6e41daa0a705991153667f005fd9298b4d70de3278ce6c6",
        8116944880354045164742031983718898570978839477997322749926018593587200
    ]
]