{
    "CoinGecko": [
        "AED",
        "ARS",
        "AUD",
		"BTC",
        "BCH",
        "BDT",
        "BHD",
        "BMD",
        "BNB",
        "BRL",
        "BTC",
        "CAD",
        "CHF",
        "CLP",
        "CNY",
        "CZK",
        "DKK",
        "EOS",
        "ETH",
        "EUR",
        "GBP",
        "HKD",
        "HUF",
        "IDR",
        "ILS",
        "INR",
        "JPY",
        "KRW",
        "KWD",
        "LKR",
        "LTC",
        "MMK",
        "MXN",
        "MYR",
        "NOK",
        "NZD",
        "PHP",
        "PKR",
        "PLN",
        "RUB",
        "SAR",
        "SEK",
        "SGD",
        "THB",
        "TRY",
        "TWD",
        "USD",
        "VEF",
        "VND",
        "XAG",
        "XAU",
        "XDR",
        "XLM",
        "XRP",
        "ZAR"
    ]
}
