{
    "localhost": {
        "pruning": "-",
        "s": "20002",
        "t": "20001",
        "version": "1.4"
    },
    "electrumx.bitwebcore.org": {
        "pruning": "-",
        "s": "20002",
        "t": "20001",
        "version": "1.4"
    },
    "electrumx1.bitwebcore.org": {
        "pruning": "-",
        "s": "20002",
        "t": "20001",
        "version": "1.4"
    },
    "electrumx2.bitwebcore.org": {
        "pruning": "-",
        "s": "20002",
        "t": "20001",
        "version": "1.4"
    },
    "electrumx4.bitwebcore.org": {
        "pruning": "-",
        "s": "20002",
        "t": "20001",
        "version": "1.4"
    },
    "electrumx.scalaris.info": {
        "pruning": "-",
        "s": "20002",
        "t": "20001",
        "version": "1.4"
    },
    "electrumx1.scalaris.info": {
        "pruning": "-",
        "s": "20002",
        "t": "20001",
        "version": "1.4"
    },
    "electrumx2.scalaris.info": {
        "pruning": "-",
        "s": "20002",
        "t": "20001",
        "version": "1.4"
    },
    "electrumx3.scalaris.info": {
        "pruning": "-",
        "s": "20002",
        "t": "20001",
        "version": "1.4"
    },
    "electrumx4.scalaris.info": {
        "pruning": "-",
        "s": "20002",
        "t": "20001",
        "version": "1.4"
    },
    "electrumx5.scalaris.info": {
        "pruning": "-",
        "s": "20002",
        "t": "20001",
        "version": "1.4"
    }
}
